{
  "common": {
    "baseColor": "#fff",
    "primaryColor": "#bd0000",
    "primaryColorHover": "#fe1010",
    "primaryColorPressed": "#c11010",
    "primaryColorSuppl": "#5e0808",
    "infoColor": "#2295ce",
    "infoColorHover": "#31a4dd",
    "infoColorPressed": "#2f7ca2",
    "infoColorSuppl": "#225277",
    "successColor": "#63e2b7",
    "successColorHover": "#7fe7c4",
    "successColorPressed": "#5acea7",
    "successColorSuppl": "rgb(42, 148, 125)",
    "warningColor": "#f2c97d",
    "warningColorHover": "#f5d599",
    "warningColorPressed": "#e6c260",
    "warningColorSuppl": "rgb(240, 138, 0)",
    "errorColor": "#e88080",
    "errorColorHover": "#e98b8b",
    "errorColorPressed": "#e57272",
    "errorColorSuppl": "rgb(208, 58, 82)",
    "textColorBase": "#fff",
    "textColor1": "rgba(255, 255, 255, 0.9)",
    "textColor2": "rgba(255, 255, 255, 0.82)",
    "textColor3": "rgba(255, 255, 255, 0.52)",
    "textColorDisabled": "rgba(255, 255, 255, 0.38)",
    "placeholderColor": "rgba(255, 255, 255, 0.38)",
    "placeholderColorDisabled": "rgba(255, 255, 255, 0.28)",
    "iconColor": "rgba(255, 255, 255, 0.38)",
    "iconColorDisabled": "rgba(255, 255, 255, 0.28)",
    "iconColorHover": "rgba(255, 255, 255, 0.475)",
    "iconColorPressed": "rgba(255, 255, 255, 0.30400000000000005)",
    "opacity1": "0.9",
    "opacity2": "0.82",
    "opacity3": "0.52",
    "opacity4": "0.38",
    "opacity5": "0.28",
    "dividerColor": "rgba(255, 255, 255, 0.09)",
    "borderColor": "rgba(255, 255, 255, 0.24)",
    "closeIconColor": "rgba(255, 255, 255, 0.52)",
    "closeIconColorHover": "rgba(255, 255, 255, 0.52)",
    "closeIconColorPressed": "rgba(255, 255, 255, 0.52)",
    "closeColorHover": "rgba(255, 255, 255, .12)",
    "closeColorPressed": "rgba(255, 255, 255, .08)",
    "clearColor": "rgba(255, 255, 255, 0.38)",
    "clearColorHover": "rgba(255, 255, 255, 0.48)",
    "clearColorPressed": "rgba(255, 255, 255, 0.3)",
    "scrollbarColor": "rgba(255, 255, 255, 0.2)",
    "scrollbarColorHover": "rgba(255, 255, 255, 0.3)",
    "scrollbarWidth": "5px",
    "scrollbarHeight": "5px",
    "scrollbarBorderRadius": "5px",
    "progressRailColor": "rgba(255, 255, 255, 0.12)",
    "railColor": "rgba(255, 255, 255, 0.2)",
    "popoverColor": "rgb(72, 72, 78)",
    "tableColor": "rgb(24, 24, 28)",
    "cardColor": "rgb(24, 24, 28)",
    "modalColor": "rgb(44, 44, 50)",
    "bodyColor": "rgb(16, 16, 20)",
    "tagColor": "rgba(51, 51, 51, 1)",
    "avatarColor": "rgba(255, 255, 255, 0.18)",
    "invertedColor": "#000",
    "inputColor": "rgba(255, 255, 255, 0.1)",
    "codeColor": "rgba(255, 255, 255, 0.12)",
    "tabColor": "rgba(255, 255, 255, 0.04)",
    "actionColor": "rgba(255, 255, 255, 0.06)",
    "tableHeaderColor": "rgba(255, 255, 255, 0.06)",
    "hoverColor": "rgba(255, 255, 255, 0.09)",
    "tableColorHover": "rgba(255, 255, 255, 0.06)",
    "tableColorStriped": "rgba(255, 255, 255, 0.05)",
    "pressedColor": "rgba(255, 255, 255, 0.05)",
    "opacityDisabled": "0.38",
    "inputColorDisabled": "rgba(255, 255, 255, 0.06)",
    "buttonColor2": "rgba(255, 255, 255, .08)",
    "buttonColor2Hover": "rgba(255, 255, 255, .12)",
    "buttonColor2Pressed": "rgba(255, 255, 255, .08)",
    "boxShadow1": "0 1px 2px -2px rgba(0, 0, 0, .24), 0 3px 6px 0 rgba(0, 0, 0, .18), 0 5px 12px 4px rgba(0, 0, 0, .12)",
    "boxShadow2": "0 3px 6px -4px rgba(0, 0, 0, .24), 0 6px 12px 0 rgba(0, 0, 0, .16), 0 9px 18px 8px rgba(0, 0, 0, .10)",
    "boxShadow3": "0 6px 16px -9px rgba(0, 0, 0, .08), 0 9px 28px 0 rgba(0, 0, 0, .05), 0 12px 48px 16px rgba(0, 0, 0, .03)"
  }
}
